
{"_embedded":{"shipments":[{"shipmentNumber":4,"orderId":"11c27e1c207d680001988b0c0000759f","orderNumber":31000003,"orderSubmitDate":"2021-06-10T14:22:32.255Z","externalOrderId":"6525544__1623334940","customerAccountId":1001,"tenantId":30111,"siteId":50131,"fulfillmentDate":"2021-06-10T14:22:59.309Z","shipmentType":"STH","shipmentStatus":"FULFILLED","fulfillmentStatus":"Fulfilled","fulfillmentLocationCode":"903","assignedLocationCode":"903","workflowProcessId":"fulfillment.FulfillmentProcess-STH","workflowProcessContainerId":"kibo-fulfillment-workflows","shipmentAdjustment":0.0,"lineItemSubtotal":55.0,"lineItemTaxAdjustment":0.0,"lineItemTaxTotal":3.92,"lineItemTotal":58.92,"shippingAdjustment":0.0,"shippingSubtotal":0.0,"shippingTaxAdjustment":0.0,"shippingTaxTotal":0.0,"shippingTotal":0.0,"handlingAdjustment":0.0,"handlingSubtotal":0.0,"handlingTaxAdjustment":0.0,"handlingTaxTotal":0.0,"handlingTotal":0.0,"dutyAdjustment":0.0,"dutyTotal":0.0,"total":58.92,"currencyCode":"USD","destination":{"destinationContact":{"address":{"address1":"9930 Quince St NW","cityOrTown":"Minneapolis","countryCode":"US","isValidated":false,"postalOrZipCode":"55433-5141","stateOrProvince":"MN"},"email":"AMW|apljacks3@gmail.com","firstName":"Lynette - Test","lastNameOrSurname":"Langenfeld","shortFullName":"Lynette - Test Langenfeld","fullName":"Lynette - Test Langenfeld","phoneNumbers":{"home":"7634125088"}},"isDestinationCommercial":false},"customer":{},"shippingMethodCode":"REGULAR","items":[{"lineId":1,"originalOrderItemId":"8d374a7ca3e94e8b98d2ad4300ece6b5","goodsType":"Physical","productCode":"74920745","quantity":1,"transferQuantity":0,"imageUrl":"https://ii2.wilsonsleather.com/fcgi-bin/iipsrv.fcgi?FIF=/images/wilsonsleather/source/2-501-1H_25011hc32.tif&qlt=75&wid=500&cvt=jpeg","name":"Genuine Leather Tote Handbag","upc":"74920745","allowsBackOrder":false,"unitPrice":55.0,"isTaxable":false,"actualPrice":55.0,"itemDiscount":0.0,"lineItemCost":55.0,"itemTax":3.92,"shipping":0.0,"shippingDiscount":0.0,"shippingTax":0.0,"handling":0.0,"handlingDiscount":0.0,"handlingTax":0.0,"duty":0.0,"weightedShipmentAdjustment":0.0,"weightedLineItemTaxAdjustment":0.0,"weightedShippingAdjustment":0.0,"weightedShippingTaxAdjustment":0.0,"weightedHandlingAdjustment":0.0,"weightedHandlingTaxAdjustment":0.0,"weightedDutyAdjustment":0.0,"taxableShipping":0.0,"taxableLineItemCost":55.0,"taxableHandling":0.0,"data":{"mlShipmentId":"2996018","productCode":"2-501-1H","dateBackOrder":"2001-01-01 00:00:00.0","image_url":"https://ii2.wilsonsleather.com/fcgi-bin/iipsrv.fcgi?FIF=/images/wilsonsleather/source/2-501-1H_25011hc32.tif&qlt=75&wid=500&cvt=jpeg","mlItemId":"3419624","kiboInternalItemData":{"product":{"availability":"Y"},"itemSpecifics":{}},"orderRoutingDate":"5","giftWrap":"no","mlOrderId":"3001618"},"auditInfo":{"updateDate":"2021-06-10T14:22:33Z","createDate":"2021-06-10T14:22:32Z","updateBy":"","createBy":""},"options":[{"name":"Size","stringValue":"UNSZ","value":"UNSZ"},{"name":"Color","stringValue":"Brown","value":"Brown"},{"name":"UPC","stringValue":"400749207454","value":"400749207454"},{"name":"Style #","stringValue":"2-501-1H","value":"2-501-1H"}],"manageStock":true,"creditValue":55.0}],"canceledItems":[],"reassignedItems":[],"rejectedItems":[],"transferredItems":[],"packages":[{"packageId":"60c22028bee7b77c3c2c3d09","trackingNumbers":[],"returnTrackingNumbers":[],"packingSlipItemDetails":[],"auditInfo":{"createDate":"2021-06-10T14:22:32Z"}}],"workflowState":{"shipmentState":"COMPLETED","taskList":[{"name":"Accept Shipment","subject":"","inputs":[{"name":"shipmentAccepted","type":"BOOLEAN"}],"active":false,"completed":true,"completedDate":"2021-06-10T14:22:59.376Z","_links":{}},{"name":"Validate Items In Stock","subject":"","inputs":[{"name":"stockLevel","type":"STRING"}],"active":false,"completed":false,"_links":{}},{"name":"Print Packing Slip","subject":"","inputs":[{"name":"back","type":"BOOLEAN"}],"active":false,"completed":false,"_links":{}},{"name":"Prepare for Shipment","subject":"","inputs":[{"name":"canceled","type":"BOOLEAN"},{"name":"back","type":"BOOLEAN"}],"active":false,"completed":false,"_links":{}}],"processInstanceId":"607031","auditInfo":{"updateDate":"2021-06-10T14:22:59Z","createDate":"2021-06-10T14:22:32Z","updateBy":"f476d4f6a62f40279178b9d27cad05bd","createBy":""},"variables":{"initiator":{"name":"initiator","oldValue":"","value":"wbadmin","updateDate":"2021-06-10T14:22:32Z"},"currentState":{"name":"currentState","oldValue":"PRE_ACCEPT_SHIPMENT","value":"COMPLETED","updateDate":"2021-06-10T14:22:59Z"}}},"changeMessages":[{"changeMessageId":"60c22029bee7b77c3c2c3d0f","createdDate":"2021-06-10T14:22:33.125Z","correlationId":"9cf54c908f714a65ae51382c9c44d625","message":"'shipmentStatus' value changed from '' to 'READY'","oldValue":"null","newValue":"READY","subject":"shipmentStatus","userId":""},{"changeMessageId":"60c22029bee7b77c3c2c3d10","createdDate":"2021-06-10T14:22:33.125Z","correlationId":"9cf54c908f714a65ae51382c9c44d625","message":"'workflowState.shipmentState' value changed from '' to 'PRE_ACCEPT_SHIPMENT'","oldValue":"null","newValue":"PRE_ACCEPT_SHIPMENT","subject":"shipmentState","userId":""},{"changeMessageId":"60c22029bee7b77c3c2c3d11","createdDate":"2021-06-10T14:22:33.125Z","correlationId":"9cf54c908f714a65ae51382c9c44d625","message":"'workflowState.activeTaskName' value changed from '' to 'Accept Shipment'","oldValue":"null","newValue":"Accept Shipment","subject":"activeTaskName","userId":""},{"changeMessageId":"60c22029bee7b77c3c2c3d12","createdDate":"2021-06-10T14:22:33.125Z","correlationId":"9cf54c908f714a65ae51382c9c44d625","message":"Shipment [4] created","userId":""},{"changeMessageId":"60c22043bee7b77c3c2c3d7a","createdDate":"2021-06-10T14:22:59.313Z","correlationId":"db7eff99cb5746ba8ea965c486ba663e","message":"'fulfillmentDate' value changed from '' to '2021-06-10T14:22:59.309957Z'","oldValue":"null","newValue":"2021-06-10T14:22:59.309957Z","subject":"fulfillmentDate","userId":"f476d4f6a62f40279178b9d27cad05bd","userDisplayName":"Mike Kytka"},{"changeMessageId":"60c22043bee7b77c3c2c3d7b","createdDate":"2021-06-10T14:22:59.313Z","correlationId":"db7eff99cb5746ba8ea965c486ba663e","message":"'shipmentStatus' value changed from 'READY' to 'FULFILLED'","oldValue":"READY","newValue":"FULFILLED","subject":"shipmentStatus","userId":"f476d4f6a62f40279178b9d27cad05bd","userDisplayName":"Mike Kytka"},{"changeMessageId":"60c22043bee7b77c3c2c3d7c","createdDate":"2021-06-10T14:22:59.313Z","correlationId":"db7eff99cb5746ba8ea965c486ba663e","message":"'fulfillmentStatus' value changed from '' to 'Fulfilled'","oldValue":"null","newValue":"Fulfilled","subject":"fulfillmentStatus","userId":"f476d4f6a62f40279178b9d27cad05bd","userDisplayName":"Mike Kytka"}],"data":{"TRON_FRAUD_CYBERSOURCE_reasonCode":"100","kiboInternalOrderData":{"discounts":[{"externalDiscountID":"465993","code":"","singleUseCode":"","description":"Free Shipping on Orders of $50+","amount":8.0,"type":"ORDER_SHIPMENT_ID"}]},"TRON_FRAUD_CYBERSOURCE_afsReply_reasonCode":"100","TRON_FRAUD_CYBERSOURCE_ccAuthReply_authorizedDateTime":"2021-06-10T13:51:42Z","TRON_FRAUD_CYBERSOURCE_purchaseTotals_currency":"USD","TRON_FRAUD_CYBERSOURCE_afsReply_identityInfoCode":"FREE-EM","TRON_FRAUD_CYBERSOURCE_ccAuthReply_reconciliationID":"47041920JPQNUVWK","TRON_FRAUD_CYBERSOURCE_merchantReferenceCode":"6525544","TRON_FRAUD_CYBERSOURCE_afsReply_consumerLocalTime":"8:51:41","TRON_FRAUD_CYBERSOURCE_ccAuthReply_avsCodeRaw":"A3","TRON_FRAUD_CYBERSOURCE_afsReply_cardScheme":"AMERICAN EXPRESS CREDIT","TRON_FRAUD_CYBERSOURCE_afsReply_internetInfoCode":"FREE-EM","TRON_FRAUD_CYBERSOURCE_ccAuthReply_processorResponse":"100","TRON_FRAUD_CYBERSOURCE_afsReply_hotlistInfoCode":"","TRON_FRAUD_CYBERSOURCE_ccAuthReply_amount":"58.92","TRON_FRAUD_CYBERSOURCE_afsReply_afsResult":"4","TRON_FRAUD_CYBERSOURCE_afsReply_scoreModelUsed":"default","TRON_FRAUD_CYBERSOURCE_requestID":"6233331010936667503061","TRON_FRAUD_CYBERSOURCE_ccAuthReply_reasonCode":"100","TRON_FRAUD_CYBERSOURCE_afsReply_hostSeverity":"1","TRON_FRAUD_CYBERSOURCE_requestToken":"Axj/7wSTUejYWNgCmfnVADUg0bsGjFyyYSqFGdVrV5aeVrDJF4gaeVrDJF46QNuCCRMMmkmWLr4Huywgyaj0bCxsAUz86oAA1AOU","TRON_FRAUD_CYBERSOURCE_orderID":"6525544","TRON_FRAUD_CYBERSOURCE_ccAuthReply_authorizationCode":"206452","TRON_FRAUD_CYBERSOURCE_afsReply_addressInfoCode":"","TRON_FRAUD_CYBERSOURCE_afsReply_cardIssuer":"AMERICAN EXPRESS US CONSUMER","TRON_FRAUD_CYBERSOURCE_decision":"ACCEPT","TRON_FRAUD_CYBERSOURCE_afsReply_binCountry":"","TRON_FRAUD_CYBERSOURCE_ccAuthReply_avsCode":"V"},"email":"AMW|apljacks3@gmail.com","isExpress":false,"auditInfo":{"updateDate":"2021-06-10T14:22:59Z","createDate":"2021-06-10T14:22:32Z","updateBy":"f476d4f6a62f40279178b9d27cad05bd","createBy":""},"readyToCapture":false,"isOptInForSms":false,"shopperNotes":{},"shipmentNotes":[],"substitutedItems":[],"_links":{"self":{"href":"https://t30111.tp3.mozu.com/api/commerce/shipments/4"},"shipments":{"href":"https://t30111.tp3.mozu.com/api/commerce/shipments"},"tasks":{"href":"https://t30111.tp3.mozu.com/api/commerce/shipments/4/tasks"},"workflowInstanceImage":{"href":"https://t30111.tp3.mozu.com/api/commerce/shipments/4/workflow-instance-image"},"backorder":{"href":"https://t30111.tp3.mozu.com/api/commerce/shipments/4/backordered","method":"POST"},"backorderItems":{"href":"https://t30111.tp3.mozu.com/api/commerce/shipments/4/backorderedItems","method":"POST"},"reject":{"href":"https://t30111.tp3.mozu.com/api/commerce/shipments/4/rejected","method":"PUT"},"rejectItems":{"href":"https://t30111.tp3.mozu.com/api/commerce/shipments/4/rejectedItems","method":"PUT"},"cancel":{"href":"https://t30111.tp3.mozu.com/api/commerce/shipments/4/canceled","method":"PUT"},"fulfill":{"href":"https://t30111.tp3.mozu.com/api/commerce/shipments/4/fulfilled","method":"PUT"},"reassign":{"href":"https://t30111.tp3.mozu.com/api/commerce/shipments/4/reassigned","method":"PUT"},"reassignItems":{"href":"https://t30111.tp3.mozu.com/api/commerce/shipments/4/reassignedItems","method":"PUT"},"cancelItems":{"href":"https://t30111.tp3.mozu.com/api/commerce/shipments/4/canceledItems","method":"PUT"}}}]},"_links":{"first":{"href":"https://t30111.tp3.mozu.com/api/commerce/shipments?page=0&pageSize=1"},"prev":{"href":"https://t30111.tp3.mozu.com/api/commerce/shipments?page=0&pageSize=1"},"self":{"href":"https://t30111.tp3.mozu.com/api/commerce/shipments?page=1&pageSize=1"},"next":{"href":"https://t30111.tp3.mozu.com/api/commerce/shipments?page=2&pageSize=1"},"last":{"href":"https://t30111.tp3.mozu.com/api/commerce/shipments?page=1195491&pageSize=1"}},"page":{"size":1,"totalElements":1195492,"totalPages":1195492,"number":1}}
{"_embedded":{"shipments":[{"shipmentNumber":4,"orderId":"11c27e1c207d680001988b0c0000759f","orderNumber":31000003,"orderSubmitDate":"2021-06-10T14:22:32.255Z","externalOrderId":"6525544__1623334940","customerAccountId":1001,"tenantId":30111,"siteId":50131,"fulfillmentDate":"2021-06-10T14:22:59.309Z","shipmentType":"STH","shipmentStatus":"FULFILLED","fulfillmentStatus":"Fulfilled","fulfillmentLocationCode":"903","assignedLocationCode":"903","workflowProcessId":"fulfillment.FulfillmentProcess-STH","workflowProcessContainerId":"kibo-fulfillment-workflows","shipmentAdjustment":0.0,"lineItemSubtotal":55.0,"lineItemTaxAdjustment":0.0,"lineItemTaxTotal":3.92,"lineItemTotal":58.92,"shippingAdjustment":0.0,"shippingSubtotal":0.0,"shippingTaxAdjustment":0.0,"shippingTaxTotal":0.0,"shippingTotal":0.0,"handlingAdjustment":0.0,"handlingSubtotal":0.0,"handlingTaxAdjustment":0.0,"handlingTaxTotal":0.0,"handlingTotal":0.0,"dutyAdjustment":0.0,"dutyTotal":0.0,"total":58.92,"currencyCode":"USD","destination":{"destinationContact":{"address":{"address1":"9930 Quince St NW","cityOrTown":"Minneapolis","countryCode":"US","isValidated":false,"postalOrZipCode":"55433-5141","stateOrProvince":"MN"},"email":"AMW|apljacks3@gmail.com","firstName":"Lynette - Test","lastNameOrSurname":"Langenfeld","shortFullName":"Lynette - Test Langenfeld","fullName":"Lynette - Test Langenfeld","phoneNumbers":{"home":"7634125088"}},"isDestinationCommercial":false},"customer":{},"shippingMethodCode":"REGULAR","items":[{"lineId":1,"originalOrderItemId":"8d374a7ca3e94e8b98d2ad4300ece6b5","goodsType":"Physical","productCode":"74920745","quantity":1,"transferQuantity":0,"imageUrl":"https://ii2.wilsonsleather.com/fcgi-bin/iipsrv.fcgi?FIF=/images/wilsonsleather/source/2-501-1H_25011hc32.tif&qlt=75&wid=500&cvt=jpeg","name":"Genuine Leather Tote Handbag","upc":"74920745","allowsBackOrder":false,"unitPrice":55.0,"isTaxable":false,"actualPrice":55.0,"itemDiscount":0.0,"lineItemCost":55.0,"itemTax":3.92,"shipping":0.0,"shippingDiscount":0.0,"shippingTax":0.0,"handling":0.0,"handlingDiscount":0.0,"handlingTax":0.0,"duty":0.0,"weightedShipmentAdjustment":0.0,"weightedLineItemTaxAdjustment":0.0,"weightedShippingAdjustment":0.0,"weightedShippingTaxAdjustment":0.0,"weightedHandlingAdjustment":0.0,"weightedHandlingTaxAdjustment":0.0,"weightedDutyAdjustment":0.0,"taxableShipping":0.0,"taxableLineItemCost":55.0,"taxableHandling":0.0,"data":{"mlShipmentId":"2996018","productCode":"2-501-1H","dateBackOrder":"2001-01-01 00:00:00.0","image_url":"https://ii2.wilsonsleather.com/fcgi-bin/iipsrv.fcgi?FIF=/images/wilsonsleather/source/2-501-1H_25011hc32.tif&qlt=75&wid=500&cvt=jpeg","mlItemId":"3419624","kiboInternalItemData":{"product":{"availability":"Y"},"itemSpecifics":{}},"orderRoutingDate":"5","giftWrap":"no","mlOrderId":"3001618"},"auditInfo":{"updateDate":"2021-06-10T14:22:33Z","createDate":"2021-06-10T14:22:32Z","updateBy":"","createBy":""},"options":[{"name":"Size","stringValue":"UNSZ","value":"UNSZ"},{"name":"Color","stringValue":"Brown","value":"Brown"},{"name":"UPC","stringValue":"400749207454","value":"400749207454"},{"name":"Style #","stringValue":"2-501-1H","value":"2-501-1H"}],"manageStock":true,"creditValue":55.0}],"canceledItems":[],"reassignedItems":[],"rejectedItems":[],"transferredItems":[],"packages":[{"packageId":"60c22028bee7b77c3c2c3d09","trackingNumbers":[],"returnTrackingNumbers":[],"packingSlipItemDetails":[],"auditInfo":{"createDate":"2021-06-10T14:22:32Z"}}],"workflowState":{"shipmentState":"COMPLETED","taskList":[{"name":"Accept Shipment","subject":"","inputs":[{"name":"shipmentAccepted","type":"BOOLEAN"}],"active":false,"completed":true,"completedDate":"2021-06-10T14:22:59.376Z","_links":{}},{"name":"Validate Items In Stock","subject":"","inputs":[{"name":"stockLevel","type":"STRING"}],"active":false,"completed":false,"_links":{}},{"name":"Print Packing Slip","subject":"","inputs":[{"name":"back","type":"BOOLEAN"}],"active":false,"completed":false,"_links":{}},{"name":"Prepare for Shipment","subject":"","inputs":[{"name":"canceled","type":"BOOLEAN"},{"name":"back","type":"BOOLEAN"}],"active":false,"completed":false,"_links":{}}],"processInstanceId":"607031","auditInfo":{"updateDate":"2021-06-10T14:22:59Z","createDate":"2021-06-10T14:22:32Z","updateBy":"f476d4f6a62f40279178b9d27cad05bd","createBy":""},"variables":{"initiator":{"name":"initiator","oldValue":"","value":"wbadmin","updateDate":"2021-06-10T14:22:32Z"},"currentState":{"name":"currentState","oldValue":"PRE_ACCEPT_SHIPMENT","value":"COMPLETED","updateDate":"2021-06-10T14:22:59Z"}}},"changeMessages":[{"changeMessageId":"60c22029bee7b77c3c2c3d0f","createdDate":"2021-06-10T14:22:33.125Z","correlationId":"9cf54c908f714a65ae51382c9c44d625","message":"'shipmentStatus' value changed from '' to 'READY'","oldValue":"null","newValue":"READY","subject":"shipmentStatus","userId":""},{"changeMessageId":"60c22029bee7b77c3c2c3d10","createdDate":"2021-06-10T14:22:33.125Z","correlationId":"9cf54c908f714a65ae51382c9c44d625","message":"'workflowState.shipmentState' value changed from '' to 'PRE_ACCEPT_SHIPMENT'","oldValue":"null","newValue":"PRE_ACCEPT_SHIPMENT","subject":"shipmentState","userId":""},{"changeMessageId":"60c22029bee7b77c3c2c3d11","createdDate":"2021-06-10T14:22:33.125Z","correlationId":"9cf54c908f714a65ae51382c9c44d625","message":"'workflowState.activeTaskName' value changed from '' to 'Accept Shipment'","oldValue":"null","newValue":"Accept Shipment","subject":"activeTaskName","userId":""},{"changeMessageId":"60c22029bee7b77c3c2c3d12","createdDate":"2021-06-10T14:22:33.125Z","correlationId":"9cf54c908f714a65ae51382c9c44d625","message":"Shipment [4] created","userId":""},{"changeMessageId":"60c22043bee7b77c3c2c3d7a","createdDate":"2021-06-10T14:22:59.313Z","correlationId":"db7eff99cb5746ba8ea965c486ba663e","message":"'fulfillmentDate' value changed from '' to '2021-06-10T14:22:59.309957Z'","oldValue":"null","newValue":"2021-06-10T14:22:59.309957Z","subject":"fulfillmentDate","userId":"f476d4f6a62f40279178b9d27cad05bd","userDisplayName":"Mike Kytka"},{"changeMessageId":"60c22043bee7b77c3c2c3d7b","createdDate":"2021-06-10T14:22:59.313Z","correlationId":"db7eff99cb5746ba8ea965c486ba663e","message":"'shipmentStatus' value changed from 'READY' to 'FULFILLED'","oldValue":"READY","newValue":"FULFILLED","subject":"shipmentStatus","userId":"f476d4f6a62f40279178b9d27cad05bd","userDisplayName":"Mike Kytka"},{"changeMessageId":"60c22043bee7b77c3c2c3d7c","createdDate":"2021-06-10T14:22:59.313Z","correlationId":"db7eff99cb5746ba8ea965c486ba663e","message":"'fulfillmentStatus' value changed from '' to 'Fulfilled'","oldValue":"null","newValue":"Fulfilled","subject":"fulfillmentStatus","userId":"f476d4f6a62f40279178b9d27cad05bd","userDisplayName":"Mike Kytka"}],"data":{"TRON_FRAUD_CYBERSOURCE_reasonCode":"100","kiboInternalOrderData":{"discounts":[{"externalDiscountID":"465993","code":"","singleUseCode":"","description":"Free Shipping on Orders of $50+","amount":8.0,"type":"ORDER_SHIPMENT_ID"}]},"TRON_FRAUD_CYBERSOURCE_afsReply_reasonCode":"100","TRON_FRAUD_CYBERSOURCE_ccAuthReply_authorizedDateTime":"2021-06-10T13:51:42Z","TRON_FRAUD_CYBERSOURCE_purchaseTotals_currency":"USD","TRON_FRAUD_CYBERSOURCE_afsReply_identityInfoCode":"FREE-EM","TRON_FRAUD_CYBERSOURCE_ccAuthReply_reconciliationID":"47041920JPQNUVWK","TRON_FRAUD_CYBERSOURCE_merchantReferenceCode":"6525544","TRON_FRAUD_CYBERSOURCE_afsReply_consumerLocalTime":"8:51:41","TRON_FRAUD_CYBERSOURCE_ccAuthReply_avsCodeRaw":"A3","TRON_FRAUD_CYBERSOURCE_afsReply_cardScheme":"AMERICAN EXPRESS CREDIT","TRON_FRAUD_CYBERSOURCE_afsReply_internetInfoCode":"FREE-EM","TRON_FRAUD_CYBERSOURCE_ccAuthReply_processorResponse":"100","TRON_FRAUD_CYBERSOURCE_afsReply_hotlistInfoCode":"","TRON_FRAUD_CYBERSOURCE_ccAuthReply_amount":"58.92","TRON_FRAUD_CYBERSOURCE_afsReply_afsResult":"4","TRON_FRAUD_CYBERSOURCE_afsReply_scoreModelUsed":"default","TRON_FRAUD_CYBERSOURCE_requestID":"6233331010936667503061","TRON_FRAUD_CYBERSOURCE_ccAuthReply_reasonCode":"100","TRON_FRAUD_CYBERSOURCE_afsReply_hostSeverity":"1","TRON_FRAUD_CYBERSOURCE_requestToken":"Axj/7wSTUejYWNgCmfnVADUg0bsGjFyyYSqFGdVrV5aeVrDJF4gaeVrDJF46QNuCCRMMmkmWLr4Huywgyaj0bCxsAUz86oAA1AOU","TRON_FRAUD_CYBERSOURCE_orderID":"6525544","TRON_FRAUD_CYBERSOURCE_ccAuthReply_authorizationCode":"206452","TRON_FRAUD_CYBERSOURCE_afsReply_addressInfoCode":"","TRON_FRAUD_CYBERSOURCE_afsReply_cardIssuer":"AMERICAN EXPRESS US CONSUMER","TRON_FRAUD_CYBERSOURCE_decision":"ACCEPT","TRON_FRAUD_CYBERSOURCE_afsReply_binCountry":"","TRON_FRAUD_CYBERSOURCE_ccAuthReply_avsCode":"V"},"email":"AMW|apljacks3@gmail.com","isExpress":false,"auditInfo":{"updateDate":"2021-06-10T14:22:59Z","createDate":"2021-06-10T14:22:32Z","updateBy":"f476d4f6a62f40279178b9d27cad05bd","createBy":""},"readyToCapture":false,"isOptInForSms":false,"shopperNotes":{},"shipmentNotes":[],"substitutedItems":[],"_links":{"self":{"href":"https://t30111.tp3.mozu.com/api/commerce/shipments/4"},"shipments":{"href":"https://t30111.tp3.mozu.com/api/commerce/shipments"},"tasks":{"href":"https://t30111.tp3.mozu.com/api/commerce/shipments/4/tasks"},"workflowInstanceImage":{"href":"https://t30111.tp3.mozu.com/api/commerce/shipments/4/workflow-instance-image"},"backorder":{"href":"https://t30111.tp3.mozu.com/api/commerce/shipments/4/backordered","method":"POST"},"backorderItems":{"href":"https://t30111.tp3.mozu.com/api/commerce/shipments/4/backorderedItems","method":"POST"},"reject":{"href":"https://t30111.tp3.mozu.com/api/commerce/shipments/4/rejected","method":"PUT"},"rejectItems":{"href":"https://t30111.tp3.mozu.com/api/commerce/shipments/4/rejectedItems","method":"PUT"},"cancel":{"href":"https://t30111.tp3.mozu.com/api/commerce/shipments/4/canceled","method":"PUT"},"fulfill":{"href":"https://t30111.tp3.mozu.com/api/commerce/shipments/4/fulfilled","method":"PUT"},"reassign":{"href":"https://t30111.tp3.mozu.com/api/commerce/shipments/4/reassigned","method":"PUT"},"reassignItems":{"href":"https://t30111.tp3.mozu.com/api/commerce/shipments/4/reassignedItems","method":"PUT"},"cancelItems":{"href":"https://t30111.tp3.mozu.com/api/commerce/shipments/4/canceledItems","method":"PUT"}}}]},"_links":{"first":{"href":"https://t30111.tp3.mozu.com/api/commerce/shipments?page=0&pageSize=1"},"prev":{"href":"https://t30111.tp3.mozu.com/api/commerce/shipments?page=0&pageSize=1"},"self":{"href":"https://t30111.tp3.mozu.com/api/commerce/shipments?page=1&pageSize=1"},"next":{"href":"https://t30111.tp3.mozu.com/api/commerce/shipments?page=2&pageSize=1"},"last":{"href":"https://t30111.tp3.mozu.com/api/commerce/shipments?page=1195491&pageSize=1"}},"page":{"size":1,"totalElements":1195492,"totalPages":1195492,"number":1}}